<svg width="101" height="101" viewBox="0 0 101 101" fill="none" xmlns="http://www.w3.org/2000/svg">
<circle cx="50.5" cy="50.5" r="50.5" fill="#E6FBD9"/>
<path d="M63.0307 46.3077V30.9858C63.0307 29.3394 61.6913 28 60.0449 28H35.7678C34.1214 28 32.782 29.3394 32.782 30.9858V62.8251C32.782 64.4715 34.1214 65.8109 35.7678 65.8109H54.0936V70.6232C54.0936 71.6747 55.2322 72.3417 56.1507 71.817L60.2808 69.4569C64.8426 72.0636 64.6041 71.9981 65.0931 71.9981C65.8525 71.9981 66.4681 71.3816 66.4681 70.6232V61.2541C71.3618 56.5527 69.4234 48.3799 63.0307 46.3077ZM35.7678 63.061C35.6377 63.061 35.5319 62.9552 35.5319 62.8251V30.9858C35.5319 30.8557 35.6377 30.7499 35.7678 30.7499H60.045C60.1751 30.7499 60.2808 30.8557 60.2808 30.9858V45.8742C55.3529 45.8742 51.3437 49.8834 51.3437 54.8113C51.3437 57.3402 52.3997 59.6268 54.0936 61.2541V63.061H35.7678ZM63.7182 68.2539L60.963 66.6795C60.5402 66.4379 60.0214 66.4379 59.5986 66.6795L56.8434 68.2539V63.0606C59.0358 63.9776 61.5228 63.9788 63.7181 63.0606L63.7182 68.2539ZM60.2808 60.9986C56.8692 60.9986 54.0936 58.223 54.0936 54.8113C54.0936 51.3997 56.8692 48.6241 60.2808 48.6241C63.6925 48.6241 66.4681 51.3997 66.4681 54.8113C66.4681 58.223 63.6925 60.9986 60.2808 60.9986Z" fill="#1E8A29"/>
<path d="M59.5921 58.3348C59.055 58.3348 58.9866 58.2077 56.7683 56.7288C56.1364 56.3075 55.9657 55.4539 56.3869 54.8221C56.8082 54.1902 57.6618 54.0196 58.2936 54.4407L59.2121 55.053L61.1993 52.0722C61.6205 51.4403 62.4743 51.2697 63.106 51.6908C63.7379 52.1121 63.9086 52.9658 63.4874 53.5975L60.7375 57.7224C60.4724 58.1198 60.0364 58.3348 59.5921 58.3348Z" fill="#1E8A29"/>
<path d="M52.7187 37.6246H41.0317C40.2724 37.6246 39.6567 37.009 39.6567 36.2496C39.6567 35.4903 40.2724 34.8747 41.0317 34.8747H52.7187C53.4781 34.8747 54.0936 35.4903 54.0936 36.2496C54.0936 37.009 53.478 37.6246 52.7187 37.6246Z" fill="#1E8A29"/>
<path d="M52.7187 43.1243H41.0317C40.2724 43.1243 39.6567 42.5087 39.6567 41.7494C39.6567 40.9901 40.2724 40.3745 41.0317 40.3745H52.7187C53.4781 40.3745 54.0936 40.9901 54.0936 41.7494C54.0936 42.5087 53.478 43.1243 52.7187 43.1243Z" fill="#1E8A29"/>
<path d="M47.9064 48.6241H41.0317C40.2724 48.6241 39.6567 48.0085 39.6567 47.2492C39.6567 46.4899 40.2724 45.8742 41.0317 45.8742H47.9064C48.6657 45.8742 49.2813 46.4899 49.2813 47.2492C49.2813 48.0085 48.6657 48.6241 47.9064 48.6241Z" fill="#1E8A29"/>
</svg>
