<?xml version="1.0" encoding="utf-8"?>
<!-- Generator: Adobe Illustrator 23.0.1, SVG Export Plug-In . SVG Version: 6.00 Build 0)  -->
<svg version="1.1" id="Layer_1" xmlns="http://www.w3.org/2000/svg" xmlns:xlink="http://www.w3.org/1999/xlink" x="0px" y="0px"
	 viewBox="0 0 60 60" style="enable-background:new 0 0 60 60;" xml:space="preserve">
<style type="text/css">
	.st0{fill:#36427F;}
	.st1{fill:#63B058;}
</style>
<g>
	<path class="st0" d="M30,14.5c-12.56,0-22.75,10.19-22.75,22.75C7.25,49.81,17.44,60,30,60s22.75-10.19,22.75-22.75
		C52.75,24.69,42.56,14.5,30,14.5z M34.5,48.38h-8.75l1.64-13.16c-1.72-0.93-2.89-2.75-2.89-4.84c0-3.04,2.46-5.5,5.5-5.5
		s5.5,2.46,5.5,5.5c0,2.17-1.25,4.04-3.07,4.94L34.5,48.38z"/>
	<path class="st1" d="M45.91,10.31C43.19,4.24,37.09,0,30,0c-6.87,0-12.8,3.97-15.65,9.74c-0.54,1.15-2.1,5.14-0.32,9.41
		c2.7-3.76,8.83-6.39,15.96-6.39c7.07,0,13.15,2.58,15.89,6.29C47.13,15.44,46.44,12.03,45.91,10.31z"/>
</g>
</svg>
